<?xml version="1.0" encoding="utf-8"?>
<!-- Generator: Adobe Illustrator 19.0.0, SVG Export Plug-In . SVG Version: 6.00 Build 0)  -->
<svg version="1.1" id="Layer_1" xmlns="http://www.w3.org/2000/svg" xmlns:xlink="http://www.w3.org/1999/xlink" x="0px" y="0px"
	 viewBox="0 0 505.1 361.1" style="enable-background:new 0 0 505.1 361.1;" xml:space="preserve">
<style type="text/css">
	.st0{fill:#F2634B;}
</style>
<path class="st0" d="M85.9,361.1h40.8c-3.3-4.9-6.4-10-9.4-15.4l-102-186.9l81.7-44.6L199,301.2c10.4,19,25.9,31.5,46.6,37.6
	c20.7,6.1,40.5,4,59.4-6.4c18.9-10.3,31.5-25.8,37.5-46.5c6.1-20.7,3.9-40.4-6.4-59.4c-10.3-18.9-25.9-31.5-46.5-37.5
	c-20.7-6.1-40.5-3.9-59.4,6.4l-40.8,22.3l-45-82.3l40.9-22.4c41.4-22.6,84.9-27.3,130.5-13.9c45.6,13.4,79.7,40.7,102.3,82.1
	c22.6,41.4,27.2,84.9,13.9,130.4c-5.4,18.3-13,34.8-22.9,49.4h92.3c3.4-2.4,4.7-6.8,3.1-10.8L362.1,5.6c-1.9-4.6-7.2-6.8-11.8-4.9
	L5.6,143c-4.6,1.9-6.8,7.2-4.9,11.8L85.9,361.1z"/>
</svg>
